Breakout Exercise 2 - Gene Annotations
…
Answer

results_plus_vs_minus_annotated = results_plus_vs_minus_annotated %>%
    dplyr::rename('symbol' = 'external_gene_name') %>%
    dplyr::select(id, symbol, everything())
results_plus_vs_minus_annotated

# A tibble: 16,249 × 9
   id     symbol baseMean log2FoldChange lfcSE  stat   pvalue     padj call 
   <chr>  <chr>     <dbl>          <dbl> <dbl> <dbl>    <dbl>    <dbl> <fct>
 1 ENSMU… Trib3    1178.          -3.64  0.450 -8.10 5.72e-16 7.08e-12 Down 
 2 ENSMU… Gm286…     77.3         10.1   1.33   7.58 3.42e-14 2.12e-10 Up   
 3 ENSMU… Chac1     243.          -2.67  0.410 -6.50 7.96e-11 2.47e- 7 Down 
 4 ENSMU… Ampd2    3250.          -0.946 0.145 -6.52 7.00e-11 2.47e- 7 Down 
 5 ENSMU… Adm2       92.6         -3.39  0.526 -6.44 1.19e-10 2.95e- 7 Down 
 6 ENSMU… Slc1a4    625.          -1.72  0.287 -5.99 2.07e- 9 4.28e- 6 Down 
 7 ENSMU… Ndufa…     85.9         -3.62  0.628 -5.75 8.68e- 9 1.54e- 5 Down 
 8 ENSMU… Vegfa     350.          -2.44  0.432 -5.64 1.67e- 8 2.59e- 5 Down 
 9 ENSMU… Slc7a…    119.          -2.32  0.429 -5.41 6.47e- 8 8.02e- 5 Down 
10 ENSMU… Rmrp       16.0         21.1   3.91   5.41 6.42e- 8 8.02e- 5 Up   
# … with 16,239 more rows
…
