Module 11X: Bonus Content
…
Additional visualizations for gene/sample level QC assessment

Count boxplots

To evaluate the difference between the count distributions before and
after normalization, let’s extract the raw counts and the rlog
normalized counts, and coerce them to tibbles.

raw_counts = as_tibble(counts(dds), rownames = 'id')
norm_counts = as_tibble(assay(rld), rownames = 'id')

raw_counts

# A tibble: 16,249 × 7
   id                 sample_A sample_B sample_C sample_D sample_E sample_F
   <chr>                 <int>    <int>    <int>    <int>    <int>    <int>
 1 ENSMUSG00000000001     1041      905     1296     3481     1283     1921
 2 ENSMUSG00000000028     1043     1232     1664     2690     1825     2720
 3 ENSMUSG00000000031     1819      914     1618     8618     1350     1222
 4 ENSMUSG00000000037       19       11       18       48       37       29
 5 ENSMUSG00000000049       18        1        4       24        1        1
 6 ENSMUSG00000000056    14972    14768    21026    22962    22263    23622
 7 ENSMUSG00000000078      888      607      911     1689      738     1180
 8 ENSMUSG00000000085      402      483      744      898      811     1261
 9 ENSMUSG00000000088      904     1212     1733     2434     1387     1267
10 ENSMUSG00000000093        7        8       16       23       17       29
# … with 16,239 more rows

norm_counts

# A tibble: 16,249 × 7
   id                 sample_A sample_B sample_C sample_D sample_E sample_F
   <chr>                 <dbl>    <dbl>    <dbl>    <dbl>    <dbl>    <dbl>
 1 ENSMUSG00000000001    10.5     10.4     10.4     10.8     10.4     10.6 
 2 ENSMUSG00000000028    10.6     10.7     10.7     10.7     10.8     11.0 
 3 ENSMUSG00000000031    11.2     10.5     10.7     11.9     10.6     10.3 
 4 ENSMUSG00000000037     4.64     4.56     4.58     4.66     4.72     4.62
 5 ENSMUSG00000000049     3.02     2.82     2.84     2.94     2.81     2.81
 6 ENSMUSG00000000056    14.3     14.3     14.3     13.9     14.4     14.2 
 7 ENSMUSG00000000078    10.1      9.77     9.86     9.93     9.68     9.90
 8 ENSMUSG00000000085     9.28     9.41     9.53     9.23     9.60     9.80
 9 ENSMUSG00000000088    10.4     10.6     10.7     10.5     10.5     10.2 
10 ENSMUSG00000000093     3.88     3.89     3.93     3.91     3.94     3.99
# … with 16,239 more rows
…
