DE Annotations & Downstream applications
…
We can use some of the tidyverse functions we’ve
encountered previously to rename the external_gene_name
column to symbol and to move it into the second column
position? Hint: Because of the order of the packages we may have loaded,
we’ll use dplyr::rename() and dplyr::select()
instead of just the select() function. We can discuss this
in a moment.

results_deficient_vs_control_annotated = results_deficient_vs_control_annotated %>%
    dplyr::rename('symbol' = 'external_gene_name') %>%
    dplyr::select(id, symbol, everything())
results_deficient_vs_control_annotated

# A tibble: 16,249 × 9
   id                 symbol baseMean log2FoldChange lfcSE   stat pvalue  padj call 
   <chr>              <chr>     <dbl>          <dbl> <dbl>  <dbl>  <dbl> <dbl> <fct>
 1 ENSMUSG00000000001 Gnai3   1490.            0.298 0.210  1.42   0.157 0.869 NS   
 2 ENSMUSG00000000028 Cdc45   1749.            0.226 0.177  1.28   0.200 0.903 NS   
 3 ENSMUSG00000000031 H19     2152.            0.458 0.765  0.599  0.549 0.995 NS   
 4 ENSMUSG00000000037 Scml2     24.9           0.579 0.561  1.03   0.302 0.951 NS   
 5 ENSMUSG00000000049 Apoh       7.78         -0.899 1.55  -0.579  0.562 0.998 NS   
 6 ENSMUSG00000000056 Narf   19654.           -0.174 0.204 -0.855  0.392 0.982 NS   
 7 ENSMUSG00000000078 Klf6     951.           -0.145 0.222 -0.652  0.515 0.992 NS   
 8 ENSMUSG00000000085 Scmh1    727.            0.265 0.275  0.964  0.335 0.966 NS   
 9 ENSMUSG00000000088 Cox5a   1427.           -0.272 0.212 -1.28   0.199 0.903 NS   
10 ENSMUSG00000000093 Tbx2      15.2           0.542 0.687  0.788  0.430 0.985 NS   
# ℹ 16,239 more rows
…
